<?xml version="1.0" encoding="iso-8859-1"?>
<!-- Generator: Adobe Illustrator 17.1.0, SVG Export Plug-In . SVG Version: 6.00 Build 0)  -->
<!DOCTYPE svg PUBLIC "-//W3C//DTD SVG 1.1//EN" "http://www.w3.org/Graphics/SVG/1.1/DTD/svg11.dtd">
<svg version="1.1" id="Layer_1" xmlns="http://www.w3.org/2000/svg" xmlns:xlink="http://www.w3.org/1999/xlink" x="0px" y="0px"
	 viewBox="0 0 70 25" style="enable-background:new 0 0 70 25;" xml:space="preserve">
<g>
	<path style="fill:#F2F2F5;" d="M10.091,19.718l-4.255-6.155v6.155h-3.04V6.42h3.04v5.775L9.901,6.42h3.458l-4.483,6.478
		l4.673,6.819H10.091z"/>
	<path style="fill:#F2F2F5;" d="M24.379,10.979c0,2.526-2.033,4.56-4.654,4.56H17.73v4.179h-3.04V6.42h5.035
		C22.347,6.42,24.379,8.453,24.379,10.979z M21.34,10.979c0-0.969-0.684-1.709-1.615-1.709H17.73v3.419h1.995
		C20.656,12.689,21.34,11.948,21.34,10.979z"/>
	<path style="fill:#EE393A;" d="M23.716,18.18c0-0.988,0.817-1.806,1.805-1.806s1.805,0.817,1.805,1.806
		c0,0.987-0.817,1.805-1.805,1.805S23.716,19.167,23.716,18.18z"/>
	<path style="fill:#F2F2F5;" d="M27.801,13.069c0-3.914,2.907-6.915,6.915-6.915c2.412,0,4.54,1.197,5.699,3.078l-2.622,1.52
		c-0.589-1.026-1.729-1.634-3.077-1.634c-2.355,0-3.875,1.577-3.875,3.952c0,2.374,1.52,3.951,3.875,3.951
		c1.349,0,2.508-0.608,3.077-1.634l2.622,1.52c-1.14,1.881-3.268,3.078-5.699,3.078C30.708,19.984,27.801,16.982,27.801,13.069z"/>
	<path style="fill:#F2F2F5;" d="M44.881,6.42v13.297h-3.04V6.42H44.881z"/>
	<path style="fill:#F2F2F5;" d="M56.09,9.346h-3.419v10.372h-3.04V9.346h-3.419V6.42h9.878V9.346z"/>
	<path style="fill:#F2F2F5;" d="M63.785,14.607v5.11h-3.039v-5.11L56.281,6.42h3.458l2.526,5.129l2.526-5.129h3.458L63.785,14.607z"
		/>
</g>
</svg>
